int drawable ic_launcher 0x7f020000
int id Button01 0x7f080003
int id ibeacon_AAA0 0x7f080009
int id ibeacon_AAA1 0x7f08000b
int id ibeacon_AAA2 0x7f08000d
int id ibeacon_AAA3 0x7f08000f
int id ibeacon_area0 0x7f080008
int id ibeacon_area1 0x7f08000a
int id ibeacon_area2 0x7f08000c
int id ibeacon_area3 0x7f08000e
int id ibeacon_area4 0x7f080010
int id ibeacon_monitoring 0x7f080005
int id ibeacon_ranging 0x7f080006
int id ibeacon_tv 0x7f080007
int id monitoringText 0x7f080001
int id pref 0x7f080011
int id range_button 0x7f080002
int id rangingText 0x7f080004
int id textView1 0x7f080000
int layout activity_background 0x7f030000
int layout activity_monitoring 0x7f030001
int layout activity_ranging 0x7f030002
int layout ibeacon_main 0x7f030003
int menu main 0x7f070000
int string app_name 0x7f050000
int style AppBaseTheme 0x7f060000
int style AppTheme 0x7f060001
int xml preferences 0x7f040000
